^C:\USERS\PIONTEK\SOURCE\REPOS\TS_SERVER\TS_SERVER\DEBUG\SOURCE.OBJ
/OUT:"C:\USERS\PIONTEK\SOURCE\REPOS\TS_SERVER\DEBUG\TS_SERVER.EXE" /INCREMENTAL /NOLOGO /LIBPATH:"C:\#SFML-2.5.1\LIB" "SFML-NETWORK-D.LIB" KERNEL32.LIB USER32.LIB GDI32.LIB WINSPOOL.LIB COMDLG32.LIB ADVAPI32.LIB SHELL32.LIB OLE32.LIB OLEAUT32.LIB UUID.LIB ODBC32.LIB ODBCCP32.LIB /MANIFEST /MANIFESTUAC:"level='asInvoker' uiAccess='false'" /manifest:embed /DEBUG:FASTLINK /PDB:"C:\USERS\PIONTEK\SOURCE\REPOS\TS_SERVER\DEBUG\TS_SERVER.PDB" /SUBSYSTEM:CONSOLE /TLBID:1 /DYNAMICBASE /NXCOMPAT /IMPLIB:"C:\USERS\PIONTEK\SOURCE\REPOS\TS_SERVER\DEBUG\TS_SERVER.LIB" /MACHINE:X86 DEBUG\SOURCE.OBJ
^C:\USERS\PIONTEK\SOURCE\REPOS\TS_PROJECT\TS_SERVER\TS_SERVER\DEBUG\SOURCE.OBJ
/OUT:"C:\USERS\PIONTEK\SOURCE\REPOS\TS_PROJECT\TS_SERVER\DEBUG\TS_SERVER.EXE" /INCREMENTAL /NOLOGO /LIBPATH:"C:\#SFML-2.5.1\LIB" "SFML-NETWORK-D.LIB" KERNEL32.LIB USER32.LIB GDI32.LIB WINSPOOL.LIB COMDLG32.LIB ADVAPI32.LIB SHELL32.LIB OLE32.LIB OLEAUT32.LIB UUID.LIB ODBC32.LIB ODBCCP32.LIB /MANIFEST /MANIFESTUAC:"level='asInvoker' uiAccess='false'" /manifest:embed /DEBUG:FASTLINK /PDB:"C:\USERS\PIONTEK\SOURCE\REPOS\TS_PROJECT\TS_SERVER\DEBUG\TS_SERVER.PDB" /SUBSYSTEM:CONSOLE /TLBID:1 /DYNAMICBASE /NXCOMPAT /IMPLIB:"C:\USERS\PIONTEK\SOURCE\REPOS\TS_PROJECT\TS_SERVER\DEBUG\TS_SERVER.LIB" /MACHINE:X86 DEBUG\SOURCE.OBJ
^C:\USERS\PIONTEK\SOURCE\REPOS\TS_PROJECT\TS_SERVER\TS_SERVER\DEBUG\CCOMMUNICATION.OBJ|C:\USERS\PIONTEK\SOURCE\REPOS\TS_PROJECT\TS_SERVER\TS_SERVER\DEBUG\SOURCE.OBJ
/OUT:"C:\USERS\PIONTEK\SOURCE\REPOS\TS_PROJECT\TS_SERVER\DEBUG\TS_SERVER.EXE" /INCREMENTAL /NOLOGO /LIBPATH:"C:\#SFML-2.5.1\LIB" "SFML-NETWORK-D.LIB" "SFML-SYSTEM-D.LIB" KERNEL32.LIB USER32.LIB GDI32.LIB WINSPOOL.LIB COMDLG32.LIB ADVAPI32.LIB SHELL32.LIB OLE32.LIB OLEAUT32.LIB UUID.LIB ODBC32.LIB ODBCCP32.LIB /MANIFEST /MANIFESTUAC:"level='asInvoker' uiAccess='false'" /manifest:embed /DEBUG:FASTLINK /PDB:"C:\USERS\PIONTEK\SOURCE\REPOS\TS_PROJECT\TS_SERVER\DEBUG\TS_SERVER.PDB" /SUBSYSTEM:CONSOLE /TLBID:1 /DYNAMICBASE /NXCOMPAT /IMPLIB:"C:\USERS\PIONTEK\SOURCE\REPOS\TS_PROJECT\TS_SERVER\DEBUG\TS_SERVER.LIB" /MACHINE:X86 DEBUG\CCOMMUNICATION.OBJ
DEBUG\SOURCE.OBJ
